♓ asura@mac[~/git/distr-systems-class/project5]$ make run
mix phx.server
19:34:33.196 [info] Running Project5Web.Endpoint with Cowboy using http://0.0.0.0:4000
Stats calculator: #PID<0.311.0>
19:34:35.655 [debug] JOIN "com" to Project5Web.ComChannel
  Transport:  Phoenix.Transports.WebSocket (2.0.0)
  Serializer:  Phoenix.Transports.V2.WebSocketSerializer
  Parameters: %{}
19:34:35.656 [debug] Replied com :ok
19:34:44.394 [debug] JOIN "com" to Project5Web.ComChannel
  Transport:  Phoenix.Transports.WebSocket (1.0.0)
  Serializer:  Phoenix.Transports.WebSocketSerializer
  Parameters: %{}
19:34:44.395 [debug] Replied com :ok
19:34:47.346 [debug] @user42 registered with pubkey: -----BEGIN RSA PUBLIC KEY-----
MIIBCgKCAQEAuZd088xLJ6FNiD9YApY8wPnAuNgelOvnia0sTvoixPqcEMGDHZkp
cPeERyMuIqfn634so7bYgkNok4CqN0uP24TKbu+hj2Ff7rsf3eD0o2554fm2+DwO
0PCD+op6mJ2aoswS7WkB5Wfs+GvVeIzOTH3BPhL1+wCU2n+O8kvzgAdVVPbWG5l1
/7Gba5OxporYU7A6ZmSro+0QGs04Tnn1MceviYo3DUU1rgrkSTqY4PdpCqbxYGg5
yaCa/GXtOsvSU7p19EFgmzxkfvPust5H4gjiqLnMFcETho8o7zIb48n2n8E+yT4l
qotm9UBL0tqm1NokzzxSnUaRmaysIOVTDwIDAQAB
-----END RSA PUBLIC KEY-----


19:34:49.724 [info] Handle call: login_secure
19:34:49.727 [info] Challenge for @user42 is [1513038889|B347EC6F917239367729B5D87A433B3340C30059CE2932C084C8F205D6615373]
19:34:49.732 [info] Got message: B347EC6F917239367729B5D87A433B3340C30059CE2932C084C8F205D6615373 from user42 signed at 1513038889
19:34:49.755 [debug] @user42 logged in using RSA challenge: 1513038889|B347EC6F917239367729B5D87A433B3340C30059CE2932C084C8F205D6615373
